verilog/rtl/rv32i.vcd
$date
	Sat Jul 12 14:49:28 2025
$end
$version
	Icarus Verilog
$end
$timescale
	1ps
$end
$scope module tb $end
$var wire 38 ! la_data_in [37:0] $end
$var wire 32 " la_data_out [31:0] $end
$var wire 8 # io_out [7:0] $end
$var reg 1 $ clk $end
$var reg 8 % io_in [7:0] $end
$var integer 32 & i [31:0] $end
$scope module dut $end
$var wire 1 $ clk $end
$var wire 8 ' io_in [7:0] $end
$var wire 38 ( la_data_in [37:0] $end
$var wire 32 ) la_data_out [31:0] $end
$var wire 1 * rst $end
$var wire 32 + pc [31:0] $end
$var wire 1 , mem_we $end
$var wire 32 - mem_wdata [31:0] $end
$var wire 32 . mem_addr [31:0] $end
$var wire 8 / io_out [7:0] $end
$var wire 32 0 instr_rdata [31:0] $end
$var wire 32 1 data_rdata [31:0] $end
$scope module core $end
$var wire 1 $ clk $end
$var wire 32 2 mem_wdata [31:0] $end
$var wire 1 , mem_we $end
$var wire 1 * rst $end
$var wire 1 3 writeback_en $end
$var wire 32 4 writeback_data [31:0] $end
$var wire 5 5 rs2 [4:0] $end
$var wire 5 6 rs1 [4:0] $end
$var wire 32 7 reg_rdata2 [31:0] $end
$var wire 32 8 reg_rdata1 [31:0] $end
$var wire 5 9 rd [4:0] $end
$var wire 7 : opcode [6:0] $end
$var wire 32 ; mem_rdata [31:0] $end
$var wire 32 < mem_addr [31:0] $end
$var wire 32 = instr [31:0] $end
$var wire 32 > imm_u [31:0] $end
$var wire 32 ? imm_s [31:0] $end
$var wire 32 @ imm_j [31:0] $end
$var wire 32 A imm_i [31:0] $end
$var wire 32 B imm_b [31:0] $end
$var wire 7 C funct7 [6:0] $end
$var wire 3 D funct3 [2:0] $end
$var wire 32 E alu_result [31:0] $end
$var wire 32 F alu_operand_b [31:0] $end
$var reg 1 G branch_taken $end
$var reg 32 H branch_target [31:0] $end
$var reg 32 I instr_reg [31:0] $end
$var reg 32 J mem_addr_reg [31:0] $end
$var reg 32 K mem_wdata_reg [31:0] $end
$var reg 1 L mem_we_reg $end
$var reg 32 M pc [31:0] $end
$var reg 32 N pc_reg [31:0] $end
$scope module alu_inst $end
$var wire 32 O b [31:0] $end
$var wire 3 P funct3 [2:0] $end
$var wire 7 Q funct7 [6:0] $end
$var wire 7 R opcode [6:0] $end
$var wire 32 S a [31:0] $end
$var reg 32 T result [31:0] $end
$upscope $end
$scope module regfile $end
$var wire 1 $ clk $end
$var wire 5 U rd [4:0] $end
$var wire 5 V rs1 [4:0] $end
$var wire 5 W rs2 [4:0] $end
$var wire 32 X wd [31:0] $end
$var wire 1 3 we $end
$var wire 32 Y rd2 [31:0] $end
$var wire 32 Z rd1 [31:0] $end
$var integer 32 [ i [31:0] $end
$upscope $end
$upscope $end
$scope module data_mem $end
$var wire 10 \ addr [9:0] $end
$var wire 1 $ clk $end
$var wire 32 ] din [31:0] $end
$var wire 1 , we $end
$var reg 32 ^ dout [31:0] $end
$upscope $end
$scope module instr_mem $end
$var wire 10 _ addr [9:0] $end
$var wire 1 $ clk $end
$var wire 32 ` din [31:0] $end
$var wire 1 a we $end
$var reg 32 b dout [31:0] $end
$upscope $end
$upscope $end
$upscope $end
$enddefinitions $end
#0
$dumpvars
bx b
0a
b0 `
b0 _
bx ^
b0 ]
b0 \
b100000 [
b0 Z
b0 Y
b0 X
b0 W
b0 V
b0 U
b0 T
b0 S
b0 R
b0 Q
b0 P
b0 O
b0 N
b0 M
0L
b0 K
b0 J
b0 I
b100 H
0G
b0 F
b0 E
b0 D
b0 C
b0 B
b0 A
b0 @
b0 ?
b0 >
bx =
b0 <
bx ;
b0 :
b0 9
b0 8
b0 7
b0 6
b0 5
b0 4
03
b0 2
bx 1
bx 0
b0 /
b0 .
b0 -
0,
b0 +
1*
b0 )
b0 (
b1 '
bx &
b1 %
0$
b0 #
b0 "
b0 !
$end
#5000
b1000000000000010010011 0
b1000000000000010010011 =
b1000000000000010010011 b
b0 1
b0 ;
b0 ^
1$
#10000
0$
#15000
1$
#20000
0$
#25000
1$
#30000
0$
#35000
1$
#40000
0*
0$
b0 %
b0 '
#45000
b10 4
b10 X
13
b10 E
b10 T
b10 F
b10 O
b1 _
b10011 :
b10011 R
b1 9
b1 U
b10 5
b10 W
b10 A
b1 ?
b100000000000 B
b1000000000000000000000 >
b10 @
b100 "
b100 )
b100 +
b100 M
b1000000000000010010011 I
1$
#50000
0$
#55000
b1000 H
b1100000000000100010011 0
b1100000000000100010011 =
b1100000000000100010011 b
b100 N
1$
#60000
0$
#65000
b11 4
b11 X
b11 E
b11 T
b11 F
b11 O
b10 _
b10 9
b10 U
b11 5
b11 W
b11 A
b10 ?
b10 B
b1100000000000000000000 >
b100000000010 @
b1000 "
b1000 )
b1000 +
b1000 M
b1100000000000100010011 I
1$
#70000
0$
#75000
b1100 H
b1000001000000110110011 0
b1000001000000110110011 =
b1000001000000110110011 b
b1000 N
1$
#80000
0$
#85000
b101 4
b101 X
b101 E
b101 T
b10 8
b10 S
b10 Z
b11 7
b11 Y
b11 F
b11 O
b11 _
b110011 :
b110011 R
b11 9
b11 U
b1 6
b1 V
b10 5
b10 W
b10 A
b11 ?
b100000000010 B
b1000001000000000000000 >
b1000000000000010 @
b1100 "
b1100 )
b1100 +
b1100 M
b1000001000000110110011 I
1$
#90000
0$
#95000
b10000 H
b1100000010000000100011 0
b1100000010000000100011 =
b1100000010000000100011 b
b1100 N
1$
#100000
0$
#105000
03
b0 4
b0 X
b0 F
b0 O
b0 E
b0 T
b0 8
b0 S
b0 Z
b101 7
b101 Y
b100 _
b100011 :
b100011 R
b0 9
b0 U
b10 D
b10 P
b0 6
b0 V
b11 5
b11 W
b11 A
b0 ?
b0 B
b1100000010000000000000 >
b10100000000010 @
b10000 "
b10000 )
b10000 +
b10000 M
b1100000010000000100011 I
1$
#110000
0$
#115000
b10100 H
b1101111 0
b1101111 =
b1101111 b
1,
1L
b101 -
b101 2
b101 ]
b101 K
b10000 N
1$
#120000
0$
#125000
13
b10100 4
b10100 X
b0 7
b0 Y
b101 _
b1101111 :
b1101111 R
b0 D
b0 P
b0 5
b0 W
b0 A
b0 >
b0 @
1,
1L
b10100 "
b10100 )
b10100 +
b10100 M
b1101111 I
1$
#130000
0$
#135000
b11000 4
b11000 X
b100 _
b11000 H
b101 1
b101 ;
b101 ^
b0 0
b0 =
b0 b
0,
0L
b10000 "
b10000 )
b10000 +
b10000 M
b10100 N
1$
#140000
0$
#145000
03
b0 4
b0 X
b101 _
b0 :
b0 R
b10100 H
b1101111 0
b1101111 =
b1101111 b
b10100 "
b10100 )
b10100 +
b10100 M
b0 I
b10000 N
1$
#150000
0$
#155000
13
b11000 4
b11000 X
b1101111 :
b1101111 R
b11000 H
b0 0
b0 =
b0 b
b1101111 I
b10100 N
1$
#160000
0$
#165000
03
b0 4
b0 X
b0 :
b0 R
b0 I
1$
#170000
0$
#175000
b110 _
b11000 "
b11000 )
b11000 +
b11000 M
1$
#180000
0$
#185000
b11100 H
b11000 N
1$
#190000
0$
#195000
b111 _
b11100 "
b11100 )
b11100 +
b11100 M
1$
#200000
0$
#205000
b100000 H
b11100 N
1$
#210000
0$
#215000
b1000 _
b100000 "
b100000 )
b100000 +
b100000 M
1$
#220000
0$
#225000
b100100 H
b100000 N
1$
#230000
0$
#235000
b1001 _
b100100 "
b100100 )
b100100 +
b100100 M
1$
#240000
0$
#245000
b101000 H
b100100 N
1$
#250000
0$
#255000
b1010 _
b101000 "
b101000 )
b101000 +
b101000 M
1$
#260000
0$
#265000
b101100 H
b101000 N
1$
#270000
0$
#275000
b1011 _
b101100 "
b101100 )
b101100 +
b101100 M
1$
#280000
0$
#285000
b110000 H
b101100 N
1$
#290000
0$
#295000
b1100 _
b110000 "
b110000 )
b110000 +
b110000 M
1$
#300000
0$
#305000
b110100 H
b110000 N
1$
#310000
0$
#315000
b1101 _
b110100 "
b110100 )
b110100 +
b110100 M
1$
#320000
0$
#325000
b111000 H
b110100 N
1$
#330000
0$
#335000
b1110 _
b111000 "
b111000 )
b111000 +
b111000 M
1$
#340000
0$
#345000
b111100 H
b111000 N
1$
#350000
0$
#355000
b1111 _
b111100 "
b111100 )
b111100 +
b111100 M
1$
#360000
0$
#365000
b1000000 H
b111100 N
1$
#370000
0$
#375000
b10000 _
b1000000 "
b1000000 )
b1000000 +
b1000000 M
1$
#380000
0$
#385000
b1000100 H
b1000000 N
1$
#390000
0$
#395000
b10001 _
b1000100 "
b1000100 )
b1000100 +
b1000100 M
1$
#400000
0$
#405000
b1001000 H
b1000100 N
1$
#410000
0$
#415000
b10010 _
b1001000 "
b1001000 )
b1001000 +
b1001000 M
1$
#420000
0$
#425000
b1001100 H
b1001000 N
1$
#430000
0$
#435000
b10011 _
b1001100 "
b1001100 )
b1001100 +
b1001100 M
1$
#440000
0$
#445000
b1010000 H
b1001100 N
1$
#450000
0$
#455000
b10100 _
b1010000 "
b1010000 )
b1010000 +
b1010000 M
1$
#460000
0$
#465000
b1010100 H
b1010000 N
1$
#470000
0$
#475000
b10101 _
b1010100 "
b1010100 )
b1010100 +
b1010100 M
1$
#480000
0$
#485000
b1011000 H
b1010100 N
1$
#490000
0$
#495000
b10110 _
b1011000 "
b1011000 )
b1011000 +
b1011000 M
1$
#500000
0$
#505000
b1011100 H
b1011000 N
1$
#510000
0$
#515000
b10111 _
b1011100 "
b1011100 )
b1011100 +
b1011100 M
1$
#520000
0$
#525000
b1100000 H
b1011100 N
1$
#530000
0$
#535000
b11000 _
b1100000 "
b1100000 )
b1100000 +
b1100000 M
1$
#540000
0$
#545000
b1100100 H
b1100000 N
1$
#550000
0$
#555000
b11001 _
b1100100 "
b1100100 )
b1100100 +
b1100100 M
1$
#560000
0$
#565000
b1101000 H
b1100100 N
1$
#570000
0$
#575000
b11010 _
b1101000 "
b1101000 )
b1101000 +
b1101000 M
1$
#580000
0$
#585000
b1101100 H
b1101000 N
1$
#590000
0$
#595000
b11011 _
b1101100 "
b1101100 )
b1101100 +
b1101100 M
1$
#600000
0$
#605000
b1110000 H
b1101100 N
1$
#610000
0$
#615000
b11100 _
b1110000 "
b1110000 )
b1110000 +
b1110000 M
1$
#620000
0$
#625000
b1110100 H
b1110000 N
1$
#630000
0$
#635000
b11101 _
b1110100 "
b1110100 )
b1110100 +
b1110100 M
1$
#640000
0$
#645000
b1111000 H
b1110100 N
1$
#650000
0$
#655000
b11110 _
b1111000 "
b1111000 )
b1111000 +
b1111000 M
1$
#660000
0$
#665000
b1111100 H
b1111000 N
1$
#670000
0$
#675000
b11111 _
b1111100 "
b1111100 )
b1111100 +
b1111100 M
1$
#680000
0$
#685000
b10000000 H
b1111100 N
1$
#690000
0$
#695000
b100000 _
b10000000 "
b10000000 )
b10000000 +
b10000000 M
1$
#700000
0$
#705000
b10000100 H
b10000000 N
1$
#710000
0$
#715000
b100001 _
b10000100 "
b10000100 )
b10000100 +
b10000100 M
1$
#720000
0$
#725000
b10001000 H
b10000100 N
1$
#730000
0$
#735000
b100010 _
b10001000 "
b10001000 )
b10001000 +
b10001000 M
1$
#740000
0$
#745000
b10001100 H
b10001000 N
1$
#750000
0$
#755000
b100011 _
b10001100 "
b10001100 )
b10001100 +
b10001100 M
1$
#760000
0$
#765000
b10010000 H
b10001100 N
1$
#770000
0$
#775000
b100100 _
b10010000 "
b10010000 )
b10010000 +
b10010000 M
1$
#780000
0$
#785000
b10010100 H
b10010000 N
1$
#790000
0$
#795000
b100101 _
b10010100 "
b10010100 )
b10010100 +
b10010100 M
1$
#800000
0$
#805000
b10011000 H
b10010100 N
1$
#810000
0$
#815000
b100110 _
b10011000 "
b10011000 )
b10011000 +
b10011000 M
1$
#820000
0$
#825000
b10011100 H
b10011000 N
1$
#830000
0$
#835000
b100111 _
b10011100 "
b10011100 )
b10011100 +
b10011100 M
1$
#840000
0$
#845000
b10100000 H
b10011100 N
1$
#850000
0$
#855000
b101000 _
b10100000 "
b10100000 )
b10100000 +
b10100000 M
1$
#860000
0$
#865000
b10100100 H
b10100000 N
1$
#870000
0$
#875000
b101001 _
b10100100 "
b10100100 )
b10100100 +
b10100100 M
1$
#880000
0$
#885000
b10101000 H
b10100100 N
1$
#890000
0$
#895000
b101010 _
b10101000 "
b10101000 )
b10101000 +
b10101000 M
1$
#900000
0$
#905000
b10101100 H
b10101000 N
1$
#910000
0$
#915000
b101011 _
b10101100 "
b10101100 )
b10101100 +
b10101100 M
1$
#920000
0$
#925000
b10110000 H
b10101100 N
1$
#930000
0$
#935000
b101100 _
b10110000 "
b10110000 )
b10110000 +
b10110000 M
1$
#940000
0$
#945000
b10110100 H
b10110000 N
1$
#950000
0$
#955000
b101101 _
b10110100 "
b10110100 )
b10110100 +
b10110100 M
1$
#960000
0$
#965000
b10111000 H
b10110100 N
1$
#970000
0$
#975000
b101110 _
b10111000 "
b10111000 )
b10111000 +
b10111000 M
1$
#980000
0$
#985000
b10111100 H
b10111000 N
1$
#990000
0$
#995000
b101111 _
b10111100 "
b10111100 )
b10111100 +
b10111100 M
1$
#1000000
0$
#1005000
b11000000 H
b10111100 N
1$
#1010000
0$
#1015000
b110000 _
b11000000 "
b11000000 )
b11000000 +
b11000000 M
1$
#1020000
0$
#1025000
b11000100 H
b11000000 N
1$
#1030000
0$
#1035000
b110001 _
b11000100 "
b11000100 )
b11000100 +
b11000100 M
1$
#1040000
0$
b1000000 &
